Library\Bee\artifacts\mvdfrm\Unity.Services.Core.ref.dll_131AC9C5EC6E6517.mvfrm
Library\Bee\artifacts\mvdfrm\UnityEditor.UI.ref.dll_4C98D3F7040CD4F5.mvfrm
Library\Bee\artifacts\mvdfrm\UnityEngine.UI.ref.dll_08FEAA520A2EFD60.mvfrm
Library\Bee\artifacts\mvdfrm\Unity.Plastic.Antlr3.Runtime.dll_F70863BC74BD081F.mvfrm
Library\Bee\artifacts\mvdfrm\Unity.Plastic.Newtonsoft.Json.dll_6DCFB699CE29F7A6.mvfrm
Library\Bee\artifacts\mvdfrm\Unity.VisualScripting.IonicZip.dll_6F90E65D56C644CC.mvfrm
Library\Bee\artifacts\mvdfrm\Unity.VisualScripting.YamlDotNet.dll_7BB2F8FF6E865F70.mvfrm
Library\Bee\artifacts\mvdfrm\Unity.VisualScripting.TextureAssets.dll_12D122532F53BD68.mvfrm
Library\Bee\artifacts\mvdfrm\Unity.VisualScripting.Antlr3.Runtime.dll_2D201FE09F4F6F8F.mvfrm
Library\Bee\artifacts\mvdfrm\UnityEditor.Graphs.dll_50C8FECDAA5607B7.mvfrm
Library\Bee\artifacts\mvdfrm\UnityEditor.CoreModule.dll_A9AF4AACE3004285.mvfrm
Library\Bee\artifacts\mvdfrm\UnityEditor.DeviceSimulatorModule.dll_9A2D083D46BB554C.mvfrm
Library\Bee\artifacts\mvdfrm\UnityEditor.DiagnosticsModule.dll_05510FF20B93549A.mvfrm
Library\Bee\artifacts\mvdfrm\UnityEditor.dll_258F38DE377A0000.mvfrm
Library\Bee\artifacts\mvdfrm\UnityEditor.GraphViewModule.dll_565C03B60896E931.mvfrm
Library\Bee\artifacts\mvdfrm\UnityEditor.PackageManagerUIModule.dll_43065FC958CE4BA1.mvfrm
Library\Bee\artifacts\mvdfrm\UnityEditor.QuickSearchModule.dll_906090FF646A50F3.mvfrm
Library\Bee\artifacts\mvdfrm\UnityEditor.SceneTemplateModule.dll_A4F2E89029D47BD4.mvfrm
Library\Bee\artifacts\mvdfrm\UnityEditor.TextCoreFontEngineModule.dll_9A4CBA64AD291A63.mvfrm
Library\Bee\artifacts\mvdfrm\UnityEditor.TextCoreTextEngineModule.dll_E234F0D63CACD381.mvfrm
Library\Bee\artifacts\mvdfrm\UnityEditor.UIBuilderModule.dll_AAE4B0D27B4F6265.mvfrm
Library\Bee\artifacts\mvdfrm\UnityEditor.UIElementsModule.dll_6FFDC1D8A52CE5A1.mvfrm
Library\Bee\artifacts\mvdfrm\UnityEditor.UIElementsSamplesModule.dll_E8091FBC7AE450DC.mvfrm
Library\Bee\artifacts\mvdfrm\UnityEditor.UIServiceModule.dll_E3D6C2356486B27F.mvfrm
Library\Bee\artifacts\mvdfrm\UnityEditor.UnityConnectModule.dll_5157F47C366933BB.mvfrm
Library\Bee\artifacts\mvdfrm\UnityEngine.AccessibilityModule.dll_D79854272A4AA371.mvfrm
Library\Bee\artifacts\mvdfrm\UnityEngine.AIModule.dll_DF905462A1457239.mvfrm
Library\Bee\artifacts\mvdfrm\UnityEngine.AndroidJNIModule.dll_EE46AAABEE4C5477.mvfrm
Library\Bee\artifacts\mvdfrm\UnityEngine.AnimationModule.dll_24E17FDEE2F3BDD7.mvfrm
Library\Bee\artifacts\mvdfrm\UnityEngine.ARModule.dll_99031965FE62D102.mvfrm
Library\Bee\artifacts\mvdfrm\UnityEngine.AssetBundleModule.dll_D449C3F0C6D105E5.mvfrm
Library\Bee\artifacts\mvdfrm\UnityEngine.AudioModule.dll_B3D4763056635109.mvfrm
Library\Bee\artifacts\mvdfrm\UnityEngine.ClothModule.dll_1ABCD32B30802FED.mvfrm
Library\Bee\artifacts\mvdfrm\UnityEngine.ClusterInputModule.dll_D0F46991E7F10681.mvfrm
Library\Bee\artifacts\mvdfrm\UnityEngine.ClusterRendererModule.dll_9FD9CAAEB67662D0.mvfrm
Library\Bee\artifacts\mvdfrm\UnityEngine.CoreModule.dll_CCD01DFF8B05ADB0.mvfrm
Library\Bee\artifacts\mvdfrm\UnityEngine.CrashReportingModule.dll_0C493ED3771DAF48.mvfrm
Library\Bee\artifacts\mvdfrm\UnityEngine.DirectorModule.dll_C6C7A178E0BDE7CD.mvfrm
Library\Bee\artifacts\mvdfrm\UnityEngine.dll_58337FB695ED8CE5.mvfrm
Library\Bee\artifacts\mvdfrm\UnityEngine.DSPGraphModule.dll_CC1902E2531EB8EE.mvfrm
Library\Bee\artifacts\mvdfrm\UnityEngine.GameCenterModule.dll_1893F4C6B48D4568.mvfrm
Library\Bee\artifacts\mvdfrm\UnityEngine.GIModule.dll_77CC9D703CF45A53.mvfrm
Library\Bee\artifacts\mvdfrm\UnityEngine.GridModule.dll_AA4139EDA35A43A7.mvfrm
Library\Bee\artifacts\mvdfrm\UnityEngine.HotReloadModule.dll_A62A3DE4BE26D959.mvfrm
Library\Bee\artifacts\mvdfrm\UnityEngine.ImageConversionModule.dll_0BCBC85F389B1AC4.mvfrm
Library\Bee\artifacts\mvdfrm\UnityEngine.IMGUIModule.dll_EC3415971C94E4EA.mvfrm
Library\Bee\artifacts\mvdfrm\UnityEngine.InputLegacyModule.dll_658EDF0F5EC2BBD6.mvfrm
Library\Bee\artifacts\mvdfrm\UnityEngine.InputModule.dll_1A4A3DE0CC9B75AD.mvfrm
Library\Bee\artifacts\mvdfrm\UnityEngine.JSONSerializeModule.dll_37AFDD63298603FB.mvfrm
Library\Bee\artifacts\mvdfrm\UnityEngine.LocalizationModule.dll_0F4133E47F6CF97A.mvfrm
Library\Bee\artifacts\mvdfrm\UnityEngine.ParticleSystemModule.dll_5F5B881FE52F3AD6.mvfrm
Library\Bee\artifacts\mvdfrm\UnityEngine.PerformanceReportingModule.dll_FD3C355B4996F26F.mvfrm
Library\Bee\artifacts\mvdfrm\UnityEngine.Physics2DModule.dll_71876FCF83F0B56C.mvfrm
Library\Bee\artifacts\mvdfrm\UnityEngine.PhysicsModule.dll_C053CA074BF466FA.mvfrm
Library\Bee\artifacts\mvdfrm\UnityEngine.ProfilerModule.dll_F90DDAAF7A176EDA.mvfrm
Library\Bee\artifacts\mvdfrm\UnityEngine.RuntimeInitializeOnLoadManagerInitializerModule.dll_7428553A8CA2FE35.mvfrm
Library\Bee\artifacts\mvdfrm\UnityEngine.ScreenCaptureModule.dll_51978AE83DF2305D.mvfrm
Library\Bee\artifacts\mvdfrm\UnityEngine.SharedInternalsModule.dll_8FDD0734AFC91614.mvfrm
Library\Bee\artifacts\mvdfrm\UnityEngine.SpriteMaskModule.dll_01C06756D5FCDAE2.mvfrm
Library\Bee\artifacts\mvdfrm\UnityEngine.SpriteShapeModule.dll_EDAAF14B7C733DEF.mvfrm
Library\Bee\artifacts\mvdfrm\UnityEngine.StreamingModule.dll_D9766D2F327B7515.mvfrm
Library\Bee\artifacts\mvdfrm\UnityEngine.SubstanceModule.dll_B62181787DCE7323.mvfrm
Library\Bee\artifacts\mvdfrm\UnityEngine.SubsystemsModule.dll_6C6DCDB8A444C2F5.mvfrm
Library\Bee\artifacts\mvdfrm\UnityEngine.TerrainModule.dll_DA9A457621B2AFE8.mvfrm
Library\Bee\artifacts\mvdfrm\UnityEngine.TerrainPhysicsModule.dll_5FD630F2FE723563.mvfrm
Library\Bee\artifacts\mvdfrm\UnityEngine.TextCoreFontEngineModule.dll_18AC35B7C026D92E.mvfrm
Library\Bee\artifacts\mvdfrm\UnityEngine.TextCoreTextEngineModule.dll_60946C294FAA924C.mvfrm
Library\Bee\artifacts\mvdfrm\UnityEngine.TextRenderingModule.dll_7AD6FCF2F529B052.mvfrm
Library\Bee\artifacts\mvdfrm\UnityEngine.TilemapModule.dll_7996ACF7396F90F1.mvfrm
Library\Bee\artifacts\mvdfrm\UnityEngine.TLSModule.dll_AC1115A2CBED694E.mvfrm
Library\Bee\artifacts\mvdfrm\UnityEngine.UIElementsModule.dll_70AC2F20A770FEEC.mvfrm
Library\Bee\artifacts\mvdfrm\UnityEngine.UIElementsNativeModule.dll_8D80145ECA46BBC3.mvfrm
Library\Bee\artifacts\mvdfrm\UnityEngine.UIModule.dll_DB03F28FFD8C77E5.mvfrm
Library\Bee\artifacts\mvdfrm\UnityEngine.UmbraModule.dll_2EA92248E389FC7C.mvfrm
Library\Bee\artifacts\mvdfrm\UnityEngine.UNETModule.dll_5F7665E8D814A329.mvfrm
Library\Bee\artifacts\mvdfrm\UnityEngine.UnityAnalyticsModule.dll_7EFAF8E991568CD2.mvfrm
Library\Bee\artifacts\mvdfrm\UnityEngine.UnityConnectModule.dll_3EB7788B30F13466.mvfrm
Library\Bee\artifacts\mvdfrm\UnityEngine.UnityCurlModule.dll_57FE21105307AFC4.mvfrm
Library\Bee\artifacts\mvdfrm\UnityEngine.UnityTestProtocolModule.dll_A3CBD5AED4DFA632.mvfrm
Library\Bee\artifacts\mvdfrm\UnityEngine.UnityWebRequestAssetBundleModule.dll_4187C31C9C76FD23.mvfrm
Library\Bee\artifacts\mvdfrm\UnityEngine.UnityWebRequestAudioModule.dll_75388939D001BD07.mvfrm
Library\Bee\artifacts\mvdfrm\UnityEngine.UnityWebRequestModule.dll_1D6AD009438FB543.mvfrm
Library\Bee\artifacts\mvdfrm\UnityEngine.UnityWebRequestTextureModule.dll_14CF0BACF68049BC.mvfrm
Library\Bee\artifacts\mvdfrm\UnityEngine.UnityWebRequestWWWModule.dll_2B56B1853F6A4EB8.mvfrm
Library\Bee\artifacts\mvdfrm\UnityEngine.VehiclesModule.dll_3E8A9AF85AE7B768.mvfrm
Library\Bee\artifacts\mvdfrm\UnityEngine.VFXModule.dll_2CEFAE11A25AD2BB.mvfrm
Library\Bee\artifacts\mvdfrm\UnityEngine.VideoModule.dll_D8DDFA9B18F56CAE.mvfrm
Library\Bee\artifacts\mvdfrm\UnityEngine.VirtualTexturingModule.dll_B20CC8CDA2F53C4E.mvfrm
Library\Bee\artifacts\mvdfrm\UnityEngine.VRModule.dll_2DD619159F46FD5D.mvfrm
Library\Bee\artifacts\mvdfrm\UnityEngine.WindModule.dll_431EF9281C3C2C19.mvfrm
Library\Bee\artifacts\mvdfrm\UnityEngine.XRModule.dll_6094DC1A28814ABB.mvfrm
Library\Bee\artifacts\mvdfrm\Unity.Android.Gradle.dll_E6B532543F54CEED.mvfrm
Library\Bee\artifacts\mvdfrm\Unity.Android.Types.dll_FF049C6CB6A6699F.mvfrm
Library\Bee\artifacts\mvdfrm\UnityEditor.Android.Extensions.dll_3F42FE3CF22C914D.mvfrm
Library\Bee\artifacts\mvdfrm\UnityEditor.WebGL.Extensions.dll_38300CE5FD9550FB.mvfrm
Library\Bee\artifacts\mvdfrm\UnityEditor.WindowsStandalone.Extensions.dll_0F0004CC01FA346B.mvfrm